{
  "project_info": {
    "project_number": "977854120559",
    "firebase_url": "https://sanbercodelana.firebaseio.com",
    "project_id": "sanbercodelana",
    "storage_bucket": "sanbercodelana.appspot.com"
  },
  "client": [
    {
      "client_info": {
        "mobilesdk_app_id": "1:977854120559:android:77768f8581b7660f59439a",
        "android_client_info": {
          "package_name": "com.sanbercodelana"
        }
      },
      "oauth_client": [
        {
          "client_id": "977854120559-76jt8u2u2vond0kuc41ug8mdviiuir4e.apps.googleusercontent.com",
          "client_type": 1,
          "android_info": {
            "package_name": "com.sanbercodelana",
            "certificate_hash": "5e8f16062ea3cd2c4a0d547876baa6f38cabf625"
          }
        },
        {
          "client_id": "977854120559-3dao8i0k2e0h32orjdgvmfq06ounka7c.apps.googleusercontent.com",
          "client_type": 3
        }
      ],
      "api_key": [
        {
          "current_key": "AIzaSyDRu18Sl-goh5soaZSMCO7fD9pTlqedkz4"
        }
      ],
      "services": {
        "appinvite_service": {
          "other_platform_oauth_client": [
            {
              "client_id": "977854120559-3dao8i0k2e0h32orjdgvmfq06ounka7c.apps.googleusercontent.com",
              "client_type": 3
            }
          ]
        }
      }
    }
  ],
  "configuration_version": "1"
}